Data analysis and R programming
…
In addition to displaying the data type of each column under its name, it only prints the first few rows of data and only as many columns as fit on one screen.

Columns of class character are never converted into factors.

6.2 Selecting columns and filtering rows

We’re going to learn some of the most common dplyr functions: select(), filter(), mutate(), group_by(), and summarize(). To select columns of a data frame, use select(). The first argument to this function is the data frame (surveys), and the subsequent arguments are the columns to keep.

select(surveys, plot_id, species_id, weight)

To choose rows based on a specific criteria, use filter():

filter(surveys, year == 1995)

## # A tibble: 1,180 x 13
##    record_id month   day  year plot_id species_id   sex hindfoot_length
##        <int> <int> <int> <int>   <int>      <chr> <chr>           <int>
##  1     22314     6     7  1995       2         NL     M              34
##  2     22728     9    23  1995       2         NL     F              32
##  3     22899    10    28  1995       2         NL     F              32
##  4     23032    12     2  1995       2         NL     F              33
##  5     22003     1    11  1995       2         DM     M              37
##  6     22042     2     4  1995       2         DM     F              36
##  7     22044     2     4  1995       2         DM     M              37
##  8     22105     3     4  1995       2         DM     F              37
##  9     22109     3     4  1995       2         DM     M              37
## 10     22168     4     1  1995       2         DM     M              36
## # ... with 1,170 more rows, and 5 more variables: weight <int>,
## #   genus <chr>, species <chr>, taxa <chr>, plot_type <chr>
…
## Answer
surveys %>%
    filter(year < 1995) %>%
    select(year, sex, weight)

6.3.1 Mutate

Frequently you’ll want to create new columns based on the values in existing columns, for example to do unit conversions, or find the ratio of values in two columns. For this we’ll use mutate().

To create a new column of weight in kg:

surveys %>%
  mutate(weight_kg = weight / 1000)

## # A tibble: 34,786 x 14
##    record_id month   day  year plot_id species_id   sex hindfoot_length
##        <int> <int> <int> <int>   <int>      <chr> <chr>           <int>
##  1         1     7    16  1977       2         NL     M              32
##  2        72     8    19  1977       2         NL     M              31
##  3       224     9    13  1977       2         NL  <NA>              NA
##  4       266    10    16  1977       2         NL  <NA>              NA
##  5       349    11    12  1977       2         NL  <NA>              NA
##  6       363    11    12  1977       2         NL  <NA>              NA
##  7       435    12    10  1977       2         NL  <NA>              NA
##  8       506     1     8  1978       2         NL  <NA>              NA
##  9       588     2    18  1978       2         NL     M              NA
## 10       661     3    11  1978       2         NL  <NA>              NA
## # ... with 34,776 more rows, and 6 more variables: weight <int>,
## #   genus <chr>, species <chr>, taxa <chr>, plot_type <chr>,
## #   weight_kg <dbl>

You can also create a second new column based on the first new column within the same call of mutate():

surveys %>%
  mutate(weight_kg = weight / 1000,
         weight_kg2 = weight_kg * 2)

## # A tibble: 34,786 x 15
##    record_id month   day  year plot_id species_id   sex hindfoot_length
##        <int> <int> <int> <int>   <int>      <chr> <chr>           <int>
##  1         1     7    16  1977       2         NL     M              32
##  2        72     8    19  1977       2         NL     M              31
##  3       224     9    13  1977       2         NL  <NA>              NA
##  4       266    10    16  1977       2         NL  <NA>              NA
##  5       349    11    12  1977       2         NL  <NA>              NA
##  6       363    11    12  1977       2         NL  <NA>              NA
##  7       435    12    10  1977       2         NL  <NA>              NA
##  8       506     1     8  1978       2         NL  <NA>              NA
##  9       588     2    18  1978       2         NL     M              NA
## 10       661     3    11  1978       2         NL  <NA>              NA
## # ... with 34,776 more rows, and 7 more variables: weight <int>,
## #   genus <chr>, species <chr>, taxa <chr>, plot_type <chr>,
## #   weight_kg <dbl>, weight_kg2 <dbl>
…
You may also have noticed that the output from these calls doesn’t run off the screen anymore. It’s one of the advantages of tbl_df over data frame.

You can also group by multiple columns:

surveys %>%
  group_by(sex, species_id) %>%
  summarize(mean_weight = mean(weight, na.rm = TRUE))

## # A tibble: 92 x 3
## # Groups:   sex [?]
##      sex species_id mean_weight
##    <chr>      <chr>       <dbl>
##  1     F         BA     9.16129
##  2     F         DM    41.60968
##  3     F         DO    48.53125
##  4     F         DS   117.74955
##  5     F         NL   154.28221
##  6     F         OL    31.06582
##  7     F         OT    24.83090
##  8     F         OX    21.00000
##  9     F         PB    30.21088
## 10     F         PE    22.82218
## # ... with 82 more rows

When grouping both by sex and species_id, the first rows are for individuals that escaped before their sex could be determined and weighted. You may notice that the last column does not contain NA but NaN (which refers to “Not a Number”). To avoid this, we can remove the missing values for weight before we attempt to calculate the summary statistics on weight. Because the missing values are removed, we can omit na.rm = TRUE when computing the mean:

surveys %>%
  filter(!is.na(weight)) %>%
  group_by(sex, species_id) %>%
  summarize(mean_weight = mean(weight))

## # A tibble: 64 x 3
## # Groups:   sex [?]
##      sex species_id mean_weight
##    <chr>      <chr>       <dbl>
##  1     F         BA     9.16129
##  2     F         DM    41.60968
##  3     F         DO    48.53125
##  4     F         DS   117.74955
##  5     F         NL   154.28221
##  6     F         OL    31.06582
##  7     F         OT    24.83090
##  8     F         OX    21.00000
##  9     F         PB    30.21088
## 10     F         PE    22.82218
## # ... with 54 more rows

Here, again, the output from these calls doesn’t run off the screen anymore. If you want to display more data, you can use the print() function at the end of your chain with the argument n specifying the number of rows to display:

surveys %>%
  filter(!is.na(weight)) %>%
  group_by(sex, species_id) %>%
  summarize(mean_weight = mean(weight)) %>%
  print(n = 15)

## # A tibble: 64 x 3
## # Groups:   sex [?]
##      sex species_id mean_weight
##    <chr>      <chr>       <dbl>
##  1     F         BA    9.161290
##  2     F         DM   41.609685
##  3     F         DO   48.531250
##  4     F         DS  117.749548
##  5     F         NL  154.282209
##  6     F         OL   31.065817
##  7     F         OT   24.830904
##  8     F         OX   21.000000
##  9     F         PB   30.210884
## 10     F         PE   22.822183
## 11     F         PF    7.974394
## 12     F         PH   30.850000
## 13     F         PL   19.312500
## 14     F         PM   22.125668
## 15     F         PP   17.180670
## # ... with 49 more rows

Once the data are grouped, you can also summarize multiple variables at the same time (and not necessarily on the same variable). For instance, we could add a column indicating the minimum weight for each species for each sex:

surveys %>%
  filter(!is.na(weight)) %>%
  group_by(sex, species_id) %>%
  summarize(mean_weight = mean(weight),
            min_weight = min(weight))

## # A tibble: 64 x 4
## # Groups:   sex [?]
##      sex species_id mean_weight min_weight
##    <chr>      <chr>       <dbl>      <dbl>
##  1     F         BA     9.16129          6
##  2     F         DM    41.60968         10
##  3     F         DO    48.53125         12
##  4     F         DS   117.74955         45
##  5     F         NL   154.28221         32
##  6     F         OL    31.06582         10
##  7     F         OT    24.83090          5
##  8     F         OX    21.00000         20
##  9     F         PB    30.21088         12
## 10     F         PE    22.82218         11
## # ... with 54 more rows
…
What was the heaviest animal measured in each year? Return the columns year, genus, species_id, and weight.

You saw above how to count the number of individuals of each sex using a combination of group_by() and tally(). How could you get the same result using group_by() and summarize()? Hint: see ?n.

## # A tibble: 5 x 2
##                   plot_type     n
##                       <chr> <int>
## 1                   Control 15611
## 2  Long-term Krat Exclosure  5118
## 3          Rodent Exclosure  4233
## 4 Short-term Krat Exclosure  5906
## 5         Spectab exclosure  3918

## # A tibble: 25 x 4
##    species_id mean_hindfoot_length min_hindfoot_length max_hindfoot_length
##         <chr>                <dbl>               <dbl>               <dbl>
##  1         AH             33.00000                  31                  35
##  2         BA             13.00000                   6                  16
##  3         DM             35.98235                  16                  50
##  4         DO             35.60755                  26                  64
##  5         DS             49.94887                  39                  58
##  6         NL             32.29423                  21                  70
##  7         OL             20.53261                  12                  39
##  8         OT             20.26741                  13                  50
##  9         OX             19.12500                  13                  21
## 10         PB             26.11592                   2                  47
## # ... with 15 more rows

## # A tibble: 27 x 4
## # Groups:   year [26]
##     year     genus     species weight
##    <int>     <chr>       <chr>  <int>
##  1  1977 Dipodomys spectabilis    149
##  2  1978   Neotoma    albigula    232
##  3  1978   Neotoma    albigula    232
##  4  1979   Neotoma    albigula    274
##  5  1980   Neotoma    albigula    243
##  6  1981   Neotoma    albigula    264
##  7  1982   Neotoma    albigula    252
##  8  1983   Neotoma    albigula    256
##  9  1984   Neotoma    albigula    259
## 10  1985   Neotoma    albigula    225
## # ... with 17 more rows
…
## # Groups:   plot_id [6]
##   plot_id `1977` `1978` `1979` `1980` `1981` `1982` `1983` `1984` `1985`
##     <int>  <int>  <int>  <int>  <int>  <int>  <int>  <int>  <int>  <int>
## 1       1      2      3      4      7      5      6      7      6      4
## 2       2      6      6      6      8      5      9      9      9      6
## 3       3      5      6      4      6      6      8     10     11      7
## 4       4      4      4      3      4      5      4      6      3      4
## 5       5      4      3      2      5      4      6      7      7      3
## 6       6      3      4      3      4      5      9      9      7      5
## # ... with 17 more variables: `1986` <int>, `1987` <int>, `1988` <int>,
## #   `1989` <int>, `1990` <int>, `1991` <int>, `1992` <int>, `1993` <int>,
## #   `1994` <int>, `1995` <int>, `1996` <int>, `1997` <int>, `1998` <int>,
## #   `1999` <int>, `2000` <int>, `2001` <int>, `2002` <int>

## # A tibble: 624 x 3
## # Groups:   plot_id [24]
##    plot_id  year n_genera
##      <int> <chr>    <int>
##  1       1  1977        2
##  2       2  1977        6
##  3       3  1977        5
##  4       4  1977        4
##  5       5  1977        4
##  6       6  1977        3
##  7       7  1977        3
##  8       8  1977        2
##  9       9  1977        3
## 10      10  1977        1
## # ... with 614 more rows

## # A tibble: 130 x 4
## # Groups:   year [26]
##     year                 plot_type hindfoot_length   weight
##  * <int>                     <chr>           <dbl>    <dbl>
##  1  1977                   Control        36.13483 50.44094
##  2  1977  Long-term Krat Exclosure        33.70833 34.78947
##  3  1977          Rodent Exclosure        39.10000 48.20000
##  4  1977 Short-term Krat Exclosure        35.84884 41.27119
##  5  1977         Spectab exclosure        37.23913 47.12903
##  6  1978                   Control        38.06467 70.75169
##  7  1978  Long-term Krat Exclosure        22.56667 35.93548
##  8  1978          Rodent Exclosure        37.83077 67.27536
##  9  1978 Short-term Krat Exclosure        36.87432 63.80347
## 10  1978         Spectab exclosure        42.28448 80.13223
## # ... with 120 more rows
…
